<mxfile host="app.diagrams.net" modified="2021-01-20T13:51:51.208Z" agent="5.0 (X11; Linux x86_64) AppleWebKit/537.36 (KHTML, like Gecko) Chrome/84.0.4147.125 Safari/537.36" etag="c2qBbMmuZvcsmT5Sw1X0" version="14.2.5" type="gitlab">
  <diagram id="R2lEEEUBdFMjLlhIrx00" name="Page-1">
    <mxGraphModel dx="801" dy="494" grid="1" gridSize="10" guides="1" tooltips="1" connect="1" arrows="1" fold="1" page="1" pageScale="1" pageWidth="1169" pageHeight="827" background="#D5E8D4" math="0" shadow="0" extFonts="Permanent Marker^https://fonts.googleapis.com/css?family=Permanent+Marker">
      <root>
        <mxCell id="0" />
        <mxCell id="1" parent="0" />
        <mxCell id="eNpb5UMBF2GOlGv9fJAZ-115" style="edgeStyle=orthogonalEdgeStyle;orthogonalLoop=1;jettySize=auto;html=1;entryX=0.492;entryY=0.967;entryDx=0;entryDy=0;entryPerimeter=0;startArrow=none;startFill=0;startSize=9;sourcePerimeterSpacing=0;endArrow=ERmany;endFill=0;endSize=9;targetPerimeterSpacing=0;strokeColor=#006658;strokeWidth=2;fontColor=#5C5C5C;" edge="1" parent="1" source="eNpb5UMBF2GOlGv9fJAZ-13" target="eNpb5UMBF2GOlGv9fJAZ-94">
          <mxGeometry relative="1" as="geometry">
            <Array as="points">
              <mxPoint x="389" y="258" />
              <mxPoint x="213" y="258" />
            </Array>
          </mxGeometry>
        </mxCell>
        <mxCell id="eNpb5UMBF2GOlGv9fJAZ-13" value="User" style="swimlane;childLayout=stackLayout;horizontal=1;startSize=30;horizontalStack=0;fontSize=15;fontStyle=1;strokeWidth=2;resizeParent=0;resizeLast=1;shadow=0;dashed=0;align=center;fillColor=#21C0A5;strokeColor=#006658;fontColor=#5C5C5C;" vertex="1" parent="1">
          <mxGeometry x="339" y="293" width="130" height="210" as="geometry">
            <mxRectangle x="280" y="200" width="60" height="30" as="alternateBounds" />
          </mxGeometry>
        </mxCell>
        <mxCell id="eNpb5UMBF2GOlGv9fJAZ-20" value="name" style="text;strokeColor=none;fillColor=none;spacingLeft=4;spacingRight=4;overflow=hidden;rotatable=0;points=[[0,0.5],[1,0.5]];portConstraint=eastwest;fontSize=12;fontStyle=1" vertex="1" parent="eNpb5UMBF2GOlGv9fJAZ-13">
          <mxGeometry y="30" width="130" height="30" as="geometry" />
        </mxCell>
        <mxCell id="eNpb5UMBF2GOlGv9fJAZ-21" value="email" style="text;strokeColor=none;fillColor=none;spacingLeft=4;spacingRight=4;overflow=hidden;rotatable=0;points=[[0,0.5],[1,0.5]];portConstraint=eastwest;fontSize=12;fontStyle=1" vertex="1" parent="eNpb5UMBF2GOlGv9fJAZ-13">
          <mxGeometry y="60" width="130" height="30" as="geometry" />
        </mxCell>
        <mxCell id="eNpb5UMBF2GOlGv9fJAZ-22" value="password(encrypted)" style="text;strokeColor=none;fillColor=none;spacingLeft=4;spacingRight=4;overflow=hidden;rotatable=0;points=[[0,0.5],[1,0.5]];portConstraint=eastwest;fontSize=12;fontStyle=1" vertex="1" parent="eNpb5UMBF2GOlGv9fJAZ-13">
          <mxGeometry y="90" width="130" height="30" as="geometry" />
        </mxCell>
        <mxCell id="eNpb5UMBF2GOlGv9fJAZ-24" value="created_at&#xa;" style="text;strokeColor=none;fillColor=none;spacingLeft=4;spacingRight=4;overflow=hidden;rotatable=0;points=[[0,0.5],[1,0.5]];portConstraint=eastwest;fontSize=12;fontStyle=1" vertex="1" parent="eNpb5UMBF2GOlGv9fJAZ-13">
          <mxGeometry y="120" width="130" height="30" as="geometry" />
        </mxCell>
        <mxCell id="eNpb5UMBF2GOlGv9fJAZ-25" value="updated_at" style="text;strokeColor=none;fillColor=none;spacingLeft=4;spacingRight=4;overflow=hidden;rotatable=0;points=[[0,0.5],[1,0.5]];portConstraint=eastwest;fontSize=12;fontStyle=1" vertex="1" parent="eNpb5UMBF2GOlGv9fJAZ-13">
          <mxGeometry y="150" width="130" height="30" as="geometry" />
        </mxCell>
        <mxCell id="eNpb5UMBF2GOlGv9fJAZ-28" value="picture" style="text;strokeColor=none;fillColor=none;spacingLeft=4;spacingRight=4;overflow=hidden;rotatable=0;points=[[0,0.5],[1,0.5]];portConstraint=eastwest;fontSize=12;fontStyle=1" vertex="1" parent="eNpb5UMBF2GOlGv9fJAZ-13">
          <mxGeometry y="180" width="130" height="30" as="geometry" />
        </mxCell>
        <mxCell id="eNpb5UMBF2GOlGv9fJAZ-30" value="Category" style="swimlane;childLayout=stackLayout;horizontal=1;startSize=30;horizontalStack=0;fontSize=15;fontStyle=1;strokeWidth=2;resizeParent=0;resizeLast=1;shadow=0;dashed=0;align=center;fillColor=#21C0A5;strokeColor=#006658;fontColor=#5C5C5C;" vertex="1" parent="1">
          <mxGeometry x="689" y="83" width="110" height="150" as="geometry">
            <mxRectangle x="280" y="200" width="60" height="30" as="alternateBounds" />
          </mxGeometry>
        </mxCell>
        <mxCell id="eNpb5UMBF2GOlGv9fJAZ-31" value="name" style="text;strokeColor=none;fillColor=none;spacingLeft=4;spacingRight=4;overflow=hidden;rotatable=0;points=[[0,0.5],[1,0.5]];portConstraint=eastwest;fontSize=12;fontStyle=1" vertex="1" parent="eNpb5UMBF2GOlGv9fJAZ-30">
          <mxGeometry y="30" width="110" height="30" as="geometry" />
        </mxCell>
        <mxCell id="eNpb5UMBF2GOlGv9fJAZ-32" value="picture" style="text;strokeColor=none;fillColor=none;spacingLeft=4;spacingRight=4;overflow=hidden;rotatable=0;points=[[0,0.5],[1,0.5]];portConstraint=eastwest;fontSize=12;fontStyle=1" vertex="1" parent="eNpb5UMBF2GOlGv9fJAZ-30">
          <mxGeometry y="60" width="110" height="30" as="geometry" />
        </mxCell>
        <mxCell id="eNpb5UMBF2GOlGv9fJAZ-33" value="created_at&#xa;" style="text;strokeColor=none;fillColor=none;spacingLeft=4;spacingRight=4;overflow=hidden;rotatable=0;points=[[0,0.5],[1,0.5]];portConstraint=eastwest;fontSize=12;fontStyle=1" vertex="1" parent="eNpb5UMBF2GOlGv9fJAZ-30">
          <mxGeometry y="90" width="110" height="30" as="geometry" />
        </mxCell>
        <mxCell id="eNpb5UMBF2GOlGv9fJAZ-34" value="updated_at" style="text;strokeColor=none;fillColor=none;spacingLeft=4;spacingRight=4;overflow=hidden;rotatable=0;points=[[0,0.5],[1,0.5]];portConstraint=eastwest;fontSize=12;fontStyle=1" vertex="1" parent="eNpb5UMBF2GOlGv9fJAZ-30">
          <mxGeometry y="120" width="110" height="30" as="geometry" />
        </mxCell>
        <mxCell id="eNpb5UMBF2GOlGv9fJAZ-105" style="edgeStyle=orthogonalEdgeStyle;orthogonalLoop=1;jettySize=auto;html=1;exitX=0.5;exitY=0;exitDx=0;exitDy=0;entryX=0.5;entryY=1;entryDx=0;entryDy=0;entryPerimeter=0;startArrow=ERmany;startFill=0;startSize=9;sourcePerimeterSpacing=0;endArrow=none;endFill=0;endSize=9;targetPerimeterSpacing=0;strokeColor=#006658;strokeWidth=2;fontColor=#5C5C5C;" edge="1" parent="1" source="eNpb5UMBF2GOlGv9fJAZ-37" target="eNpb5UMBF2GOlGv9fJAZ-34">
          <mxGeometry relative="1" as="geometry" />
        </mxCell>
        <mxCell id="eNpb5UMBF2GOlGv9fJAZ-37" value="Book" style="swimlane;childLayout=stackLayout;horizontal=1;startSize=30;horizontalStack=0;fontSize=15;fontStyle=1;strokeWidth=2;resizeParent=0;resizeLast=1;shadow=0;dashed=0;align=center;fillColor=#21C0A5;strokeColor=#006658;fontColor=#5C5C5C;" vertex="1" parent="1">
          <mxGeometry x="689" y="293" width="110" height="300" as="geometry">
            <mxRectangle x="280" y="200" width="60" height="30" as="alternateBounds" />
          </mxGeometry>
        </mxCell>
        <mxCell id="eNpb5UMBF2GOlGv9fJAZ-38" value="title" style="text;strokeColor=none;fillColor=none;spacingLeft=4;spacingRight=4;overflow=hidden;rotatable=0;points=[[0,0.5],[1,0.5]];portConstraint=eastwest;fontSize=12;fontStyle=1" vertex="1" parent="eNpb5UMBF2GOlGv9fJAZ-37">
          <mxGeometry y="30" width="110" height="30" as="geometry" />
        </mxCell>
        <mxCell id="eNpb5UMBF2GOlGv9fJAZ-44" value="description" style="text;strokeColor=none;fillColor=none;spacingLeft=4;spacingRight=4;overflow=hidden;rotatable=0;points=[[0,0.5],[1,0.5]];portConstraint=eastwest;fontSize=12;fontStyle=1" vertex="1" parent="eNpb5UMBF2GOlGv9fJAZ-37">
          <mxGeometry y="60" width="110" height="30" as="geometry" />
        </mxCell>
        <mxCell id="eNpb5UMBF2GOlGv9fJAZ-39" value="author" style="text;strokeColor=none;fillColor=none;spacingLeft=4;spacingRight=4;overflow=hidden;rotatable=0;points=[[0,0.5],[1,0.5]];portConstraint=eastwest;fontSize=12;fontStyle=1" vertex="1" parent="eNpb5UMBF2GOlGv9fJAZ-37">
          <mxGeometry y="90" width="110" height="30" as="geometry" />
        </mxCell>
        <mxCell id="eNpb5UMBF2GOlGv9fJAZ-40" value="publish_date" style="text;strokeColor=none;fillColor=none;spacingLeft=4;spacingRight=4;overflow=hidden;rotatable=0;points=[[0,0.5],[1,0.5]];portConstraint=eastwest;fontSize=12;fontStyle=1" vertex="1" parent="eNpb5UMBF2GOlGv9fJAZ-37">
          <mxGeometry y="120" width="110" height="30" as="geometry" />
        </mxCell>
        <mxCell id="eNpb5UMBF2GOlGv9fJAZ-41" value="page" style="text;strokeColor=none;fillColor=none;spacingLeft=4;spacingRight=4;overflow=hidden;rotatable=0;points=[[0,0.5],[1,0.5]];portConstraint=eastwest;fontSize=12;fontStyle=1" vertex="1" parent="eNpb5UMBF2GOlGv9fJAZ-37">
          <mxGeometry y="150" width="110" height="30" as="geometry" />
        </mxCell>
        <mxCell id="eNpb5UMBF2GOlGv9fJAZ-42" value="rating" style="text;strokeColor=none;fillColor=none;spacingLeft=4;spacingRight=4;overflow=hidden;rotatable=0;points=[[0,0.5],[1,0.5]];portConstraint=eastwest;fontSize=12;fontStyle=1" vertex="1" parent="eNpb5UMBF2GOlGv9fJAZ-37">
          <mxGeometry y="180" width="110" height="30" as="geometry" />
        </mxCell>
        <mxCell id="eNpb5UMBF2GOlGv9fJAZ-46" value="created_at&#xa;" style="text;strokeColor=none;fillColor=none;spacingLeft=4;spacingRight=4;overflow=hidden;rotatable=0;points=[[0,0.5],[1,0.5]];portConstraint=eastwest;fontSize=12;fontStyle=1" vertex="1" parent="eNpb5UMBF2GOlGv9fJAZ-37">
          <mxGeometry y="210" width="110" height="30" as="geometry" />
        </mxCell>
        <mxCell id="eNpb5UMBF2GOlGv9fJAZ-45" value="updated_at" style="text;strokeColor=none;fillColor=none;spacingLeft=4;spacingRight=4;overflow=hidden;rotatable=0;points=[[0,0.5],[1,0.5]];portConstraint=eastwest;fontSize=12;fontStyle=1" vertex="1" parent="eNpb5UMBF2GOlGv9fJAZ-37">
          <mxGeometry y="240" width="110" height="30" as="geometry" />
        </mxCell>
        <mxCell id="eNpb5UMBF2GOlGv9fJAZ-43" value="category_id" style="text;strokeColor=none;fillColor=none;spacingLeft=4;spacingRight=4;overflow=hidden;rotatable=0;points=[[0,0.5],[1,0.5]];portConstraint=eastwest;fontSize=12;fontStyle=1" vertex="1" parent="eNpb5UMBF2GOlGv9fJAZ-37">
          <mxGeometry y="270" width="110" height="30" as="geometry" />
        </mxCell>
        <mxCell id="eNpb5UMBF2GOlGv9fJAZ-47" value="UserBook" style="swimlane;childLayout=stackLayout;horizontal=1;startSize=30;horizontalStack=0;fontSize=15;fontStyle=1;strokeWidth=2;resizeParent=0;resizeLast=1;shadow=0;dashed=0;align=center;fillColor=#21C0A5;strokeColor=#006658;fontColor=#5C5C5C;" vertex="1" parent="1">
          <mxGeometry x="529" y="293" width="110" height="210" as="geometry">
            <mxRectangle x="280" y="200" width="60" height="30" as="alternateBounds" />
          </mxGeometry>
        </mxCell>
        <mxCell id="eNpb5UMBF2GOlGv9fJAZ-48" value="user_id" style="text;strokeColor=none;fillColor=none;spacingLeft=4;spacingRight=4;overflow=hidden;rotatable=0;points=[[0,0.5],[1,0.5]];portConstraint=eastwest;fontSize=12;fontStyle=1" vertex="1" parent="eNpb5UMBF2GOlGv9fJAZ-47">
          <mxGeometry y="30" width="110" height="30" as="geometry" />
        </mxCell>
        <mxCell id="eNpb5UMBF2GOlGv9fJAZ-49" value="book_id" style="text;strokeColor=none;fillColor=none;spacingLeft=4;spacingRight=4;overflow=hidden;rotatable=0;points=[[0,0.5],[1,0.5]];portConstraint=eastwest;fontSize=12;fontStyle=1" vertex="1" parent="eNpb5UMBF2GOlGv9fJAZ-47">
          <mxGeometry y="60" width="110" height="30" as="geometry" />
        </mxCell>
        <mxCell id="eNpb5UMBF2GOlGv9fJAZ-52" value="favourite_status" style="text;strokeColor=none;fillColor=none;spacingLeft=4;spacingRight=4;overflow=hidden;rotatable=0;points=[[0,0.5],[1,0.5]];portConstraint=eastwest;fontSize=12;fontStyle=1" vertex="1" parent="eNpb5UMBF2GOlGv9fJAZ-47">
          <mxGeometry y="90" width="110" height="30" as="geometry" />
        </mxCell>
        <mxCell id="eNpb5UMBF2GOlGv9fJAZ-50" value="study_status" style="text;strokeColor=none;fillColor=none;spacingLeft=4;spacingRight=4;overflow=hidden;rotatable=0;points=[[0,0.5],[1,0.5]];portConstraint=eastwest;fontSize=12;fontStyle=1" vertex="1" parent="eNpb5UMBF2GOlGv9fJAZ-47">
          <mxGeometry y="120" width="110" height="30" as="geometry" />
        </mxCell>
        <mxCell id="eNpb5UMBF2GOlGv9fJAZ-54" value="created_at" style="text;strokeColor=none;fillColor=none;spacingLeft=4;spacingRight=4;overflow=hidden;rotatable=0;points=[[0,0.5],[1,0.5]];portConstraint=eastwest;fontSize=12;fontStyle=1" vertex="1" parent="eNpb5UMBF2GOlGv9fJAZ-47">
          <mxGeometry y="150" width="110" height="30" as="geometry" />
        </mxCell>
        <mxCell id="eNpb5UMBF2GOlGv9fJAZ-53" value="updated_at&#xa;" style="text;strokeColor=none;fillColor=none;spacingLeft=4;spacingRight=4;overflow=hidden;rotatable=0;points=[[0,0.5],[1,0.5]];portConstraint=eastwest;fontSize=12;fontStyle=1" vertex="1" parent="eNpb5UMBF2GOlGv9fJAZ-47">
          <mxGeometry y="180" width="110" height="30" as="geometry" />
        </mxCell>
        <mxCell id="eNpb5UMBF2GOlGv9fJAZ-106" style="edgeStyle=orthogonalEdgeStyle;orthogonalLoop=1;jettySize=auto;html=1;exitX=0.673;exitY=-0.005;exitDx=0;exitDy=0;startArrow=ERmany;startFill=0;startSize=9;sourcePerimeterSpacing=0;endArrow=none;endFill=0;endSize=9;targetPerimeterSpacing=0;strokeColor=#006658;strokeWidth=2;exitPerimeter=0;fontColor=#5C5C5C;" edge="1" parent="1" source="eNpb5UMBF2GOlGv9fJAZ-55">
          <mxGeometry relative="1" as="geometry">
            <mxPoint x="689" y="543" as="targetPoint" />
            <Array as="points">
              <mxPoint x="603" y="543" />
            </Array>
          </mxGeometry>
        </mxCell>
        <mxCell id="eNpb5UMBF2GOlGv9fJAZ-107" style="edgeStyle=orthogonalEdgeStyle;orthogonalLoop=1;jettySize=auto;html=1;exitX=0.25;exitY=0;exitDx=0;exitDy=0;entryX=1;entryY=0.5;entryDx=0;entryDy=0;startArrow=ERmany;startFill=0;startSize=9;sourcePerimeterSpacing=0;endArrow=none;endFill=0;endSize=9;targetPerimeterSpacing=0;strokeColor=#006658;strokeWidth=2;fontColor=#5C5C5C;" edge="1" parent="1" source="eNpb5UMBF2GOlGv9fJAZ-55" target="eNpb5UMBF2GOlGv9fJAZ-25">
          <mxGeometry relative="1" as="geometry">
            <Array as="points">
              <mxPoint x="557" y="543" />
              <mxPoint x="499" y="543" />
              <mxPoint x="499" y="458" />
            </Array>
          </mxGeometry>
        </mxCell>
        <mxCell id="eNpb5UMBF2GOlGv9fJAZ-55" value="Review" style="swimlane;childLayout=stackLayout;horizontal=1;startSize=30;horizontalStack=0;fontSize=15;fontStyle=1;strokeWidth=2;resizeParent=0;resizeLast=1;shadow=0;dashed=0;align=center;fillColor=#21C0A5;strokeColor=#006658;fontColor=#5C5C5C;" vertex="1" parent="1">
          <mxGeometry x="529" y="593" width="110" height="210" as="geometry">
            <mxRectangle x="280" y="200" width="60" height="30" as="alternateBounds" />
          </mxGeometry>
        </mxCell>
        <mxCell id="eNpb5UMBF2GOlGv9fJAZ-56" value="user_id" style="text;strokeColor=none;fillColor=none;spacingLeft=4;spacingRight=4;overflow=hidden;rotatable=0;points=[[0,0.5],[1,0.5]];portConstraint=eastwest;fontSize=12;fontStyle=1" vertex="1" parent="eNpb5UMBF2GOlGv9fJAZ-55">
          <mxGeometry y="30" width="110" height="30" as="geometry" />
        </mxCell>
        <mxCell id="eNpb5UMBF2GOlGv9fJAZ-57" value="book_id" style="text;strokeColor=none;fillColor=none;spacingLeft=4;spacingRight=4;overflow=hidden;rotatable=0;points=[[0,0.5],[1,0.5]];portConstraint=eastwest;fontSize=12;fontStyle=1" vertex="1" parent="eNpb5UMBF2GOlGv9fJAZ-55">
          <mxGeometry y="60" width="110" height="30" as="geometry" />
        </mxCell>
        <mxCell id="eNpb5UMBF2GOlGv9fJAZ-58" value="rating" style="text;strokeColor=none;fillColor=none;spacingLeft=4;spacingRight=4;overflow=hidden;rotatable=0;points=[[0,0.5],[1,0.5]];portConstraint=eastwest;fontSize=12;fontStyle=1" vertex="1" parent="eNpb5UMBF2GOlGv9fJAZ-55">
          <mxGeometry y="90" width="110" height="30" as="geometry" />
        </mxCell>
        <mxCell id="eNpb5UMBF2GOlGv9fJAZ-59" value="content" style="text;strokeColor=none;fillColor=none;spacingLeft=4;spacingRight=4;overflow=hidden;rotatable=0;points=[[0,0.5],[1,0.5]];portConstraint=eastwest;fontSize=12;fontStyle=1" vertex="1" parent="eNpb5UMBF2GOlGv9fJAZ-55">
          <mxGeometry y="120" width="110" height="30" as="geometry" />
        </mxCell>
        <mxCell id="eNpb5UMBF2GOlGv9fJAZ-60" value="created_at" style="text;strokeColor=none;fillColor=none;spacingLeft=4;spacingRight=4;overflow=hidden;rotatable=0;points=[[0,0.5],[1,0.5]];portConstraint=eastwest;fontSize=12;fontStyle=1" vertex="1" parent="eNpb5UMBF2GOlGv9fJAZ-55">
          <mxGeometry y="150" width="110" height="30" as="geometry" />
        </mxCell>
        <mxCell id="eNpb5UMBF2GOlGv9fJAZ-61" value="updated_at&#xa;" style="text;strokeColor=none;fillColor=none;spacingLeft=4;spacingRight=4;overflow=hidden;rotatable=0;points=[[0,0.5],[1,0.5]];portConstraint=eastwest;fontSize=12;fontStyle=1" vertex="1" parent="eNpb5UMBF2GOlGv9fJAZ-55">
          <mxGeometry y="180" width="110" height="30" as="geometry" />
        </mxCell>
        <mxCell id="eNpb5UMBF2GOlGv9fJAZ-62" value="Comment" style="swimlane;childLayout=stackLayout;horizontal=1;startSize=30;horizontalStack=0;fontSize=15;fontStyle=1;strokeWidth=2;resizeParent=0;resizeLast=1;shadow=0;dashed=0;align=center;fillColor=#21C0A5;strokeColor=#006658;fontColor=#5C5C5C;" vertex="1" parent="1">
          <mxGeometry x="149" y="463" width="130" height="180" as="geometry">
            <mxRectangle x="280" y="200" width="60" height="30" as="alternateBounds" />
          </mxGeometry>
        </mxCell>
        <mxCell id="eNpb5UMBF2GOlGv9fJAZ-63" value="content" style="text;strokeColor=none;fillColor=none;spacingLeft=4;spacingRight=4;overflow=hidden;rotatable=0;points=[[0,0.5],[1,0.5]];portConstraint=eastwest;fontSize=12;fontStyle=1" vertex="1" parent="eNpb5UMBF2GOlGv9fJAZ-62">
          <mxGeometry y="30" width="130" height="30" as="geometry" />
        </mxCell>
        <mxCell id="eNpb5UMBF2GOlGv9fJAZ-64" value="user_id" style="text;strokeColor=none;fillColor=none;spacingLeft=4;spacingRight=4;overflow=hidden;rotatable=0;points=[[0,0.5],[1,0.5]];portConstraint=eastwest;fontSize=12;fontStyle=1" vertex="1" parent="eNpb5UMBF2GOlGv9fJAZ-62">
          <mxGeometry y="60" width="130" height="30" as="geometry" />
        </mxCell>
        <mxCell id="eNpb5UMBF2GOlGv9fJAZ-65" value="review_id" style="text;strokeColor=none;fillColor=none;spacingLeft=4;spacingRight=4;overflow=hidden;rotatable=0;points=[[0,0.5],[1,0.5]];portConstraint=eastwest;fontSize=12;fontStyle=1" vertex="1" parent="eNpb5UMBF2GOlGv9fJAZ-62">
          <mxGeometry y="90" width="130" height="30" as="geometry" />
        </mxCell>
        <mxCell id="eNpb5UMBF2GOlGv9fJAZ-66" value="created_at&#xa;" style="text;strokeColor=none;fillColor=none;spacingLeft=4;spacingRight=4;overflow=hidden;rotatable=0;points=[[0,0.5],[1,0.5]];portConstraint=eastwest;fontSize=12;fontStyle=1" vertex="1" parent="eNpb5UMBF2GOlGv9fJAZ-62">
          <mxGeometry y="120" width="130" height="30" as="geometry" />
        </mxCell>
        <mxCell id="eNpb5UMBF2GOlGv9fJAZ-67" value="updated_at" style="text;strokeColor=none;fillColor=none;spacingLeft=4;spacingRight=4;overflow=hidden;rotatable=0;points=[[0,0.5],[1,0.5]];portConstraint=eastwest;fontSize=12;fontStyle=1" vertex="1" parent="eNpb5UMBF2GOlGv9fJAZ-62">
          <mxGeometry y="150" width="130" height="30" as="geometry" />
        </mxCell>
        <mxCell id="eNpb5UMBF2GOlGv9fJAZ-104" style="edgeStyle=orthogonalEdgeStyle;orthogonalLoop=1;jettySize=auto;html=1;exitX=0.5;exitY=0;exitDx=0;exitDy=0;startArrow=ERmany;startFill=0;startSize=9;sourcePerimeterSpacing=0;endArrow=none;endFill=0;endSize=9;targetPerimeterSpacing=0;strokeColor=#006658;strokeWidth=2;fontColor=#5C5C5C;" edge="1" parent="1" source="eNpb5UMBF2GOlGv9fJAZ-69">
          <mxGeometry relative="1" as="geometry">
            <mxPoint x="744" y="594" as="targetPoint" />
            <Array as="points">
              <mxPoint x="744" y="594" />
            </Array>
          </mxGeometry>
        </mxCell>
        <mxCell id="eNpb5UMBF2GOlGv9fJAZ-69" value="BookPhoto" style="swimlane;childLayout=stackLayout;horizontal=1;startSize=30;horizontalStack=0;fontSize=15;fontStyle=1;strokeWidth=2;resizeParent=0;resizeLast=1;shadow=0;dashed=0;align=center;fillColor=#21C0A5;strokeColor=#006658;fontColor=#5C5C5C;" vertex="1" parent="1">
          <mxGeometry x="689" y="673" width="110" height="110" as="geometry">
            <mxRectangle x="280" y="200" width="60" height="30" as="alternateBounds" />
          </mxGeometry>
        </mxCell>
        <mxCell id="eNpb5UMBF2GOlGv9fJAZ-70" value="book_id" style="text;strokeColor=none;fillColor=none;spacingLeft=4;spacingRight=4;overflow=hidden;rotatable=0;points=[[0,0.5],[1,0.5]];portConstraint=eastwest;fontSize=12;fontStyle=1" vertex="1" parent="eNpb5UMBF2GOlGv9fJAZ-69">
          <mxGeometry y="30" width="110" height="30" as="geometry" />
        </mxCell>
        <mxCell id="eNpb5UMBF2GOlGv9fJAZ-71" value="picture" style="text;strokeColor=none;fillColor=none;spacingLeft=4;spacingRight=4;overflow=hidden;rotatable=0;points=[[0,0.5],[1,0.5]];portConstraint=eastwest;fontSize=12;fontStyle=1" vertex="1" parent="eNpb5UMBF2GOlGv9fJAZ-69">
          <mxGeometry y="60" width="110" height="50" as="geometry" />
        </mxCell>
        <mxCell id="eNpb5UMBF2GOlGv9fJAZ-75" value="Request" style="swimlane;childLayout=stackLayout;horizontal=1;startSize=30;horizontalStack=0;fontSize=15;fontStyle=1;strokeWidth=2;resizeParent=0;resizeLast=1;shadow=0;dashed=0;align=center;fillColor=#21C0A5;strokeColor=#006658;fontColor=#5C5C5C;" vertex="1" parent="1">
          <mxGeometry x="354" y="23" width="110" height="210" as="geometry">
            <mxRectangle x="280" y="200" width="60" height="30" as="alternateBounds" />
          </mxGeometry>
        </mxCell>
        <mxCell id="eNpb5UMBF2GOlGv9fJAZ-76" value="user_id" style="text;strokeColor=none;fillColor=none;spacingLeft=4;spacingRight=4;overflow=hidden;rotatable=0;points=[[0,0.5],[1,0.5]];portConstraint=eastwest;fontSize=12;fontStyle=1" vertex="1" parent="eNpb5UMBF2GOlGv9fJAZ-75">
          <mxGeometry y="30" width="110" height="30" as="geometry" />
        </mxCell>
        <mxCell id="eNpb5UMBF2GOlGv9fJAZ-77" value="title" style="text;strokeColor=none;fillColor=none;spacingLeft=4;spacingRight=4;overflow=hidden;rotatable=0;points=[[0,0.5],[1,0.5]];portConstraint=eastwest;fontSize=12;fontStyle=1" vertex="1" parent="eNpb5UMBF2GOlGv9fJAZ-75">
          <mxGeometry y="60" width="110" height="30" as="geometry" />
        </mxCell>
        <mxCell id="eNpb5UMBF2GOlGv9fJAZ-78" value="author" style="text;strokeColor=none;fillColor=none;spacingLeft=4;spacingRight=4;overflow=hidden;rotatable=0;points=[[0,0.5],[1,0.5]];portConstraint=eastwest;fontSize=12;fontStyle=1" vertex="1" parent="eNpb5UMBF2GOlGv9fJAZ-75">
          <mxGeometry y="90" width="110" height="30" as="geometry" />
        </mxCell>
        <mxCell id="eNpb5UMBF2GOlGv9fJAZ-80" value="link" style="text;strokeColor=none;fillColor=none;spacingLeft=4;spacingRight=4;overflow=hidden;rotatable=0;points=[[0,0.5],[1,0.5]];portConstraint=eastwest;fontSize=12;fontStyle=1" vertex="1" parent="eNpb5UMBF2GOlGv9fJAZ-75">
          <mxGeometry y="120" width="110" height="30" as="geometry" />
        </mxCell>
        <mxCell id="eNpb5UMBF2GOlGv9fJAZ-81" value="status" style="text;strokeColor=none;fillColor=none;spacingLeft=4;spacingRight=4;overflow=hidden;rotatable=0;points=[[0,0.5],[1,0.5]];portConstraint=eastwest;fontSize=12;fontStyle=1" vertex="1" parent="eNpb5UMBF2GOlGv9fJAZ-75">
          <mxGeometry y="150" width="110" height="30" as="geometry" />
        </mxCell>
        <mxCell id="eNpb5UMBF2GOlGv9fJAZ-79" value="isbn" style="text;strokeColor=none;fillColor=none;spacingLeft=4;spacingRight=4;overflow=hidden;rotatable=0;points=[[0,0.5],[1,0.5]];portConstraint=eastwest;fontSize=12;fontStyle=1" vertex="1" parent="eNpb5UMBF2GOlGv9fJAZ-75">
          <mxGeometry y="180" width="110" height="30" as="geometry" />
        </mxCell>
        <mxCell id="eNpb5UMBF2GOlGv9fJAZ-114" style="edgeStyle=orthogonalEdgeStyle;orthogonalLoop=1;jettySize=auto;html=1;entryX=0.5;entryY=1;entryDx=0;entryDy=0;entryPerimeter=0;startArrow=ERmany;startFill=0;startSize=9;sourcePerimeterSpacing=0;endArrow=none;endFill=0;endSize=9;targetPerimeterSpacing=0;strokeColor=#006658;strokeWidth=2;fontColor=#5C5C5C;" edge="1" parent="1" source="eNpb5UMBF2GOlGv9fJAZ-82" target="eNpb5UMBF2GOlGv9fJAZ-28">
          <mxGeometry relative="1" as="geometry" />
        </mxCell>
        <mxCell id="eNpb5UMBF2GOlGv9fJAZ-82" value="ReviewLike" style="swimlane;childLayout=stackLayout;horizontal=1;startSize=30;horizontalStack=0;fontSize=15;fontStyle=1;strokeWidth=2;resizeParent=0;resizeLast=1;shadow=0;dashed=0;align=center;fillColor=#21C0A5;strokeColor=#006658;fontColor=#5C5C5C;" vertex="1" parent="1">
          <mxGeometry x="349" y="593" width="110" height="180" as="geometry">
            <mxRectangle x="280" y="200" width="60" height="30" as="alternateBounds" />
          </mxGeometry>
        </mxCell>
        <mxCell id="eNpb5UMBF2GOlGv9fJAZ-83" value="user_id" style="text;strokeColor=none;fillColor=none;spacingLeft=4;spacingRight=4;overflow=hidden;rotatable=0;points=[[0,0.5],[1,0.5]];portConstraint=eastwest;fontSize=12;fontStyle=1" vertex="1" parent="eNpb5UMBF2GOlGv9fJAZ-82">
          <mxGeometry y="30" width="110" height="30" as="geometry" />
        </mxCell>
        <mxCell id="eNpb5UMBF2GOlGv9fJAZ-84" value="review_id" style="text;strokeColor=none;fillColor=none;spacingLeft=4;spacingRight=4;overflow=hidden;rotatable=0;points=[[0,0.5],[1,0.5]];portConstraint=eastwest;fontSize=12;fontStyle=1" vertex="1" parent="eNpb5UMBF2GOlGv9fJAZ-82">
          <mxGeometry y="60" width="110" height="30" as="geometry" />
        </mxCell>
        <mxCell id="eNpb5UMBF2GOlGv9fJAZ-85" value="like_status" style="text;strokeColor=none;fillColor=none;spacingLeft=4;spacingRight=4;overflow=hidden;rotatable=0;points=[[0,0.5],[1,0.5]];portConstraint=eastwest;fontSize=12;fontStyle=1" vertex="1" parent="eNpb5UMBF2GOlGv9fJAZ-82">
          <mxGeometry y="90" width="110" height="30" as="geometry" />
        </mxCell>
        <mxCell id="eNpb5UMBF2GOlGv9fJAZ-87" value="created_at" style="text;strokeColor=none;fillColor=none;spacingLeft=4;spacingRight=4;overflow=hidden;rotatable=0;points=[[0,0.5],[1,0.5]];portConstraint=eastwest;fontSize=12;fontStyle=1" vertex="1" parent="eNpb5UMBF2GOlGv9fJAZ-82">
          <mxGeometry y="120" width="110" height="30" as="geometry" />
        </mxCell>
        <mxCell id="eNpb5UMBF2GOlGv9fJAZ-88" value="updated_at&#xa;" style="text;strokeColor=none;fillColor=none;spacingLeft=4;spacingRight=4;overflow=hidden;rotatable=0;points=[[0,0.5],[1,0.5]];portConstraint=eastwest;fontSize=12;fontStyle=1" vertex="1" parent="eNpb5UMBF2GOlGv9fJAZ-82">
          <mxGeometry y="150" width="110" height="30" as="geometry" />
        </mxCell>
        <mxCell id="eNpb5UMBF2GOlGv9fJAZ-89" value="Relationship" style="swimlane;childLayout=stackLayout;horizontal=1;startSize=30;horizontalStack=0;fontSize=15;fontStyle=1;strokeWidth=2;resizeParent=0;resizeLast=1;shadow=0;dashed=0;align=center;fillColor=#21C0A5;strokeColor=#006658;fontColor=#5C5C5C;" vertex="1" parent="1">
          <mxGeometry x="149" y="293" width="130" height="100" as="geometry">
            <mxRectangle x="280" y="200" width="60" height="30" as="alternateBounds" />
          </mxGeometry>
        </mxCell>
        <mxCell id="eNpb5UMBF2GOlGv9fJAZ-90" value="follower_id" style="text;strokeColor=none;fillColor=none;spacingLeft=4;spacingRight=4;overflow=hidden;rotatable=0;points=[[0,0.5],[1,0.5]];portConstraint=eastwest;fontSize=12;fontStyle=1" vertex="1" parent="eNpb5UMBF2GOlGv9fJAZ-89">
          <mxGeometry y="30" width="130" height="30" as="geometry" />
        </mxCell>
        <mxCell id="eNpb5UMBF2GOlGv9fJAZ-91" value="followed_id" style="text;strokeColor=none;fillColor=none;spacingLeft=4;spacingRight=4;overflow=hidden;rotatable=0;points=[[0,0.5],[1,0.5]];portConstraint=eastwest;fontSize=12;fontStyle=1" vertex="1" parent="eNpb5UMBF2GOlGv9fJAZ-89">
          <mxGeometry y="60" width="130" height="40" as="geometry" />
        </mxCell>
        <mxCell id="eNpb5UMBF2GOlGv9fJAZ-92" value="Activity" style="swimlane;childLayout=stackLayout;horizontal=1;startSize=30;horizontalStack=0;fontSize=15;fontStyle=1;strokeWidth=2;resizeParent=0;resizeLast=1;shadow=0;dashed=0;align=center;fillColor=#21C0A5;strokeColor=#006658;fontColor=#5C5C5C;" vertex="1" parent="1">
          <mxGeometry x="149" y="73" width="130" height="150" as="geometry">
            <mxRectangle x="280" y="200" width="60" height="30" as="alternateBounds" />
          </mxGeometry>
        </mxCell>
        <mxCell id="eNpb5UMBF2GOlGv9fJAZ-93" value="target_id" style="text;strokeColor=none;fillColor=none;spacingLeft=4;spacingRight=4;overflow=hidden;rotatable=0;points=[[0,0.5],[1,0.5]];portConstraint=eastwest;fontSize=12;fontStyle=1" vertex="1" parent="eNpb5UMBF2GOlGv9fJAZ-92">
          <mxGeometry y="30" width="130" height="30" as="geometry" />
        </mxCell>
        <mxCell id="eNpb5UMBF2GOlGv9fJAZ-96" value="target_name" style="text;strokeColor=none;fillColor=none;spacingLeft=4;spacingRight=4;overflow=hidden;rotatable=0;points=[[0,0.5],[1,0.5]];portConstraint=eastwest;fontSize=12;fontStyle=1" vertex="1" parent="eNpb5UMBF2GOlGv9fJAZ-92">
          <mxGeometry y="60" width="130" height="30" as="geometry" />
        </mxCell>
        <mxCell id="eNpb5UMBF2GOlGv9fJAZ-95" value="action_name" style="text;strokeColor=none;fillColor=none;spacingLeft=4;spacingRight=4;overflow=hidden;rotatable=0;points=[[0,0.5],[1,0.5]];portConstraint=eastwest;fontSize=12;fontStyle=1" vertex="1" parent="eNpb5UMBF2GOlGv9fJAZ-92">
          <mxGeometry y="90" width="130" height="30" as="geometry" />
        </mxCell>
        <mxCell id="eNpb5UMBF2GOlGv9fJAZ-94" value="user_id" style="text;strokeColor=none;fillColor=none;spacingLeft=4;spacingRight=4;overflow=hidden;rotatable=0;points=[[0,0.5],[1,0.5]];portConstraint=eastwest;fontSize=12;fontStyle=1" vertex="1" parent="eNpb5UMBF2GOlGv9fJAZ-92">
          <mxGeometry y="120" width="130" height="30" as="geometry" />
        </mxCell>
        <mxCell id="eNpb5UMBF2GOlGv9fJAZ-100" style="edgeStyle=orthogonalEdgeStyle;orthogonalLoop=1;jettySize=auto;html=1;entryX=0;entryY=0.5;entryDx=0;entryDy=0;startArrow=ERmany;startFill=0;endArrow=ERmany;endFill=0;fillColor=#21C0A5;strokeWidth=2;endSize=9;startSize=9;strokeColor=#006658;fontColor=#5C5C5C;" edge="1" parent="1" source="eNpb5UMBF2GOlGv9fJAZ-90" target="eNpb5UMBF2GOlGv9fJAZ-20">
          <mxGeometry relative="1" as="geometry" />
        </mxCell>
        <mxCell id="eNpb5UMBF2GOlGv9fJAZ-101" style="edgeStyle=orthogonalEdgeStyle;orthogonalLoop=1;jettySize=auto;html=1;startArrow=none;startFill=0;startSize=9;sourcePerimeterSpacing=0;endArrow=ERmany;endFill=0;endSize=9;targetPerimeterSpacing=0;strokeWidth=2;exitX=1;exitY=0.5;exitDx=0;exitDy=0;entryX=0;entryY=0.5;entryDx=0;entryDy=0;strokeColor=#006658;fontColor=#5C5C5C;" edge="1" parent="1" source="eNpb5UMBF2GOlGv9fJAZ-22" target="eNpb5UMBF2GOlGv9fJAZ-52">
          <mxGeometry relative="1" as="geometry">
            <mxPoint x="429" y="509" as="sourcePoint" />
            <mxPoint x="519" y="373" as="targetPoint" />
            <Array as="points" />
          </mxGeometry>
        </mxCell>
        <mxCell id="eNpb5UMBF2GOlGv9fJAZ-103" style="edgeStyle=orthogonalEdgeStyle;orthogonalLoop=1;jettySize=auto;html=1;entryX=0;entryY=0.5;entryDx=0;entryDy=0;startArrow=ERmany;startFill=0;startSize=9;sourcePerimeterSpacing=0;endArrow=none;endFill=0;endSize=9;targetPerimeterSpacing=0;strokeColor=#006658;strokeWidth=2;exitX=1;exitY=0.5;exitDx=0;exitDy=0;fontColor=#5C5C5C;" edge="1" parent="1" source="eNpb5UMBF2GOlGv9fJAZ-52" target="eNpb5UMBF2GOlGv9fJAZ-39">
          <mxGeometry relative="1" as="geometry">
            <mxPoint x="649" y="393" as="sourcePoint" />
            <Array as="points">
              <mxPoint x="659" y="398" />
              <mxPoint x="659" y="398" />
            </Array>
          </mxGeometry>
        </mxCell>
        <mxCell id="eNpb5UMBF2GOlGv9fJAZ-108" style="edgeStyle=orthogonalEdgeStyle;orthogonalLoop=1;jettySize=auto;html=1;exitX=1;exitY=0.5;exitDx=0;exitDy=0;entryX=0.238;entryY=1.033;entryDx=0;entryDy=0;entryPerimeter=0;startArrow=ERmany;startFill=0;startSize=9;sourcePerimeterSpacing=0;endArrow=none;endFill=0;endSize=9;targetPerimeterSpacing=0;strokeColor=#006658;strokeWidth=2;fontColor=#5C5C5C;" edge="1" parent="1" source="eNpb5UMBF2GOlGv9fJAZ-64" target="eNpb5UMBF2GOlGv9fJAZ-28">
          <mxGeometry relative="1" as="geometry" />
        </mxCell>
        <mxCell id="eNpb5UMBF2GOlGv9fJAZ-111" style="edgeStyle=orthogonalEdgeStyle;orthogonalLoop=1;jettySize=auto;html=1;entryX=0;entryY=0.5;entryDx=0;entryDy=0;startArrow=ERmany;startFill=0;startSize=9;sourcePerimeterSpacing=0;endArrow=none;endFill=0;endSize=9;targetPerimeterSpacing=0;strokeColor=#006658;strokeWidth=2;fontColor=#5C5C5C;" edge="1" parent="1" source="eNpb5UMBF2GOlGv9fJAZ-67" target="eNpb5UMBF2GOlGv9fJAZ-61">
          <mxGeometry relative="1" as="geometry">
            <Array as="points">
              <mxPoint x="214" y="788" />
            </Array>
          </mxGeometry>
        </mxCell>
        <mxCell id="eNpb5UMBF2GOlGv9fJAZ-113" style="edgeStyle=orthogonalEdgeStyle;orthogonalLoop=1;jettySize=auto;html=1;exitX=1;exitY=0.5;exitDx=0;exitDy=0;entryX=0;entryY=0.5;entryDx=0;entryDy=0;startArrow=ERmany;startFill=0;startSize=9;sourcePerimeterSpacing=0;endArrow=none;endFill=0;endSize=9;targetPerimeterSpacing=0;strokeColor=#006658;strokeWidth=2;fontColor=#5C5C5C;" edge="1" parent="1" source="eNpb5UMBF2GOlGv9fJAZ-84" target="eNpb5UMBF2GOlGv9fJAZ-57">
          <mxGeometry relative="1" as="geometry" />
        </mxCell>
        <mxCell id="eNpb5UMBF2GOlGv9fJAZ-116" style="edgeStyle=orthogonalEdgeStyle;orthogonalLoop=1;jettySize=auto;html=1;startArrow=ERmany;startFill=0;startSize=9;sourcePerimeterSpacing=0;endArrow=none;endFill=0;endSize=9;targetPerimeterSpacing=0;strokeColor=#006658;strokeWidth=2;fontColor=#5C5C5C;" edge="1" parent="1">
          <mxGeometry relative="1" as="geometry">
            <mxPoint x="419" y="233" as="sourcePoint" />
            <mxPoint x="419" y="293" as="targetPoint" />
            <Array as="points">
              <mxPoint x="419" y="253" />
              <mxPoint x="419" y="253" />
            </Array>
          </mxGeometry>
        </mxCell>
      </root>
    </mxGraphModel>
  </diagram>
</mxfile>
